<svg width="30" height="30" viewBox="0 0 30 30" fill="none" xmlns="http://www.w3.org/2000/svg">
<g clip-path="url(#clip0)">
<path d="M26.574 11.6714H25.6929V12.5581H26.574V11.6714Z" fill="#EC3A34"/>
<path d="M26.574 13.4493H25.6929V14.3361H26.574V13.4493Z" fill="#EC3A34"/>
<path d="M26.574 22.5101H25.6929V23.3969H26.574V22.5101Z" fill="#EC3A34"/>
<path d="M26.574 24.306H25.6929V25.1928H26.574V24.306Z" fill="#EC3A34"/>
<path d="M26.574 15.2273H25.6929V21.6009H26.574V15.2273Z" fill="#EC3A34"/>
<path d="M4.34308 17.3293H3.46191V18.2161H4.34308V17.3293Z" fill="#EC3A34"/>
<path d="M4.34308 19.1252H3.46191V20.012H4.34308V19.1252Z" fill="#EC3A34"/>
<path d="M4.34308 20.9392H3.46191V23.7029H4.34308V20.9392Z" fill="#EC3A34"/>
<path d="M4.34308 13.4224H3.46191V16.4246H4.34308V13.4224Z" fill="#EC3A34"/>
<path d="M4.34308 11.667H3.46191V12.5537H4.34308V11.667Z" fill="#EC3A34"/>
<path d="M6.52589 30C6.21278 30 5.93993 30 5.64472 30C5.55526 28.0375 5.92652 26.1921 6.91951 24.4952C7.9125 22.7982 9.29911 21.5334 11.0883 20.6782C10.9541 20.5161 10.8289 20.3766 10.717 20.2326C9.95663 19.2513 9.59433 18.1351 9.5988 16.8882C9.60327 15.7404 9.59432 14.5927 9.60327 13.4449C9.60327 13.2693 9.5496 13.2018 9.37962 13.1568C8.48056 12.9182 7.95276 12.09 8.05116 11.1583C8.16746 10.06 8.93233 9.15979 10.0237 8.89423C10.2518 8.84021 10.4979 8.81771 10.7349 8.81771C13.0519 8.81321 15.3689 8.81321 17.6903 8.81771C18.8354 8.81771 19.6853 9.45687 19.9626 10.5371C20.0163 10.7532 20.0342 10.9828 20.0342 11.2033C20.0386 13.0848 20.0386 14.9663 20.0386 16.8522C20.0386 18.2026 19.6316 19.3999 18.7504 20.4261C18.7146 20.4711 18.6833 20.5207 18.652 20.5657C22.5211 22.5011 24.355 25.6519 24.2835 29.9865C23.9748 29.9865 23.6975 29.9865 23.3799 29.9865C23.3799 29.811 23.3799 29.6354 23.3799 29.4599C23.3844 28.3346 23.2278 27.2318 22.8163 26.1786C22.047 24.2116 20.7454 22.7172 18.8846 21.718C18.6073 21.5694 18.3166 21.4524 18.0348 21.3174C17.914 21.2588 17.8201 21.2723 17.7038 21.3489C16.6258 22.0645 15.4405 22.3526 14.1522 22.1951C13.4053 22.105 12.7209 21.8485 12.0902 21.4479C11.9247 21.3444 11.7905 21.3399 11.6161 21.4209C8.84287 22.7127 7.17894 24.8777 6.63324 27.8935C6.52589 28.4697 6.55273 29.0728 6.52142 29.6624C6.52142 29.775 6.52589 29.8785 6.52589 30ZM10.5068 13.2378C10.4979 13.3233 10.4889 13.3729 10.4889 13.4269C10.4889 14.6197 10.4844 15.8125 10.4934 17.0053C10.4934 17.2888 10.5157 17.5769 10.5739 17.856C11.048 20.12 13.0966 21.5874 15.3823 21.3174C17.3996 21.0743 19.0591 19.3053 19.1262 17.2618C19.1664 16.024 19.144 14.7862 19.1485 13.5484C19.1485 13.2423 19.1485 13.2378 18.8444 13.2378C16.1472 13.2378 13.4455 13.2378 10.7483 13.2378C10.6768 13.2378 10.6052 13.2378 10.5068 13.2378ZM14.3759 12.3376C15.8833 12.3376 17.3862 12.3331 18.8936 12.3421C19.0859 12.3421 19.1619 12.2971 19.153 12.09C19.1351 11.7704 19.153 11.4464 19.144 11.1223C19.1217 10.2761 18.5849 9.72694 17.7485 9.72243C15.3957 9.71343 13.0385 9.71793 10.6857 9.72243C10.2429 9.72243 9.83586 9.85297 9.49592 10.159C9.12914 10.4966 8.94128 10.9197 8.93233 11.4149C8.92338 11.955 9.34384 12.3331 9.95216 12.3376C11.4282 12.3421 12.8998 12.3376 14.3759 12.3376Z" fill="#EC3A34"/>
<path d="M8.34619 25.4899C8.71745 24.9993 9.0395 24.5132 9.42865 24.0856C9.75517 23.721 10.1577 23.4239 10.52 23.0908C10.6319 22.9918 10.7034 23.0008 10.7839 23.1268C10.9002 23.3204 11.1373 23.5184 11.1149 23.685C11.0971 23.8515 10.8153 23.982 10.6498 24.1306C10.1175 24.5942 9.65677 25.1253 9.29893 25.7375C9.18711 25.9311 9.0887 25.9446 8.91873 25.823C8.75323 25.715 8.57431 25.625 8.34619 25.4899Z" fill="#EC3A34"/>
<path d="M18.7191 22.6541C19.6584 23.1987 20.4099 23.8919 21.0495 24.7651C20.808 24.9451 20.5754 25.1117 20.3338 25.2917C19.7747 24.5175 19.0993 23.9099 18.2808 23.4237C18.4284 23.1627 18.567 22.9196 18.7191 22.6541Z" fill="#EC3A34"/>
<path d="M8.92773 27.3578C9.214 27.3578 9.48685 27.3578 9.77759 27.3578C9.77759 28.2355 9.77759 29.1087 9.77759 29.9954C9.50027 29.9954 9.22295 29.9954 8.92773 29.9954C8.92773 29.1267 8.92773 28.258 8.92773 27.3578Z" fill="#EC3A34"/>
<path d="M20.1196 30C20.1196 29.1132 20.1196 28.2445 20.1196 27.3623C20.4059 27.3623 20.6877 27.3623 20.9829 27.3623C20.9829 28.24 20.9829 29.1132 20.9829 30C20.6966 30 20.4193 30 20.1196 30Z" fill="#EC3A34"/>
<path d="M7.77426 6.12602C7.74742 6.0495 7.68033 5.99099 7.59981 5.97749L5.17101 5.6309L4.07961 3.42085C4.04383 3.34883 3.96779 3.29932 3.88727 3.29932C3.80676 3.29932 3.73072 3.34433 3.69494 3.42085L2.61696 5.6354L0.188154 5.99999C0.107641 6.0135 0.0405467 6.06751 0.0137091 6.14853C-0.0131286 6.22505 0.00923613 6.31507 0.0673843 6.36908L1.82972 8.08851L1.42268 10.5236C1.40927 10.6046 1.44058 10.6857 1.50767 10.7352C1.54345 10.7622 1.58818 10.7757 1.63291 10.7757C1.6687 10.7757 1.70001 10.7667 1.73132 10.7487L3.90069 9.59189L6.07454 10.7352C6.10585 10.7532 6.14164 10.7577 6.17295 10.7577C6.28924 10.7577 6.38765 10.6587 6.38765 10.5416C6.38765 10.5236 6.38765 10.5101 6.38317 10.4921L5.96272 8.07501L7.71164 6.34658C7.77873 6.28806 7.79662 6.20254 7.77426 6.12602ZM5.58252 7.84545C5.53332 7.89497 5.51095 7.96698 5.5199 8.039L5.88668 10.15L3.9991 9.15978C3.93648 9.12827 3.86044 9.12827 3.79782 9.15978L1.91471 10.1635L2.26807 8.048C2.27702 7.97599 2.25912 7.90847 2.20545 7.85896L0.680177 6.36908L2.78693 6.05401C2.8585 6.045 2.91665 5.99999 2.94796 5.93698L3.88727 4.00599L4.83554 5.92347C4.86685 5.98649 4.92947 6.0315 4.99656 6.0405L7.10332 6.34208L5.58252 7.84545Z" fill="#EC3A34"/>
<path d="M18.6883 2.82671C18.6615 2.75019 18.5944 2.69167 18.5138 2.67817L16.0851 2.33158L14.9937 0.12153C14.9579 0.0450113 14.8818 0 14.8013 0C14.7208 0 14.6448 0.0450113 14.609 0.12153L13.531 2.34059L11.1022 2.70068C11.0217 2.71418 10.9546 2.76819 10.9278 2.84921C10.9009 2.93023 10.9233 3.01575 10.9814 3.06977L12.7438 4.7892L12.3367 7.22431C12.3233 7.30533 12.3546 7.38635 12.4217 7.43586C12.4575 7.46287 12.5022 7.47637 12.547 7.47637C12.5828 7.47637 12.6141 7.46737 12.6454 7.44936L14.8147 6.29257L16.9886 7.43586C17.0199 7.45386 17.0557 7.45836 17.087 7.45836C17.2033 7.45836 17.3017 7.35934 17.3017 7.24231C17.3017 7.22431 17.3017 7.2108 17.2972 7.1928L16.8768 4.77569L18.6257 3.04726C18.6928 2.99325 18.7151 2.90323 18.6883 2.82671ZM16.501 4.54614C16.4518 4.59565 16.4295 4.66767 16.4384 4.73969L16.8052 6.85071L14.9176 5.86047C14.855 5.82896 14.779 5.82896 14.7163 5.86047L12.8377 6.86422L13.1911 4.74869C13.2 4.67667 13.1821 4.60915 13.1284 4.55964L11.6032 3.06977L13.7099 2.75469C13.7815 2.74569 13.8396 2.70068 13.871 2.63766L14.8058 0.706677L15.7541 2.62416C15.7854 2.68717 15.848 2.73218 15.9151 2.74119L18.0218 3.04276L16.501 4.54614Z" fill="#EC3A34"/>
<path d="M29.9867 6.12602C29.9598 6.0495 29.8927 5.99099 29.8122 5.97749L27.3834 5.6309L26.292 3.42085C26.2562 3.34883 26.1802 3.29932 26.0997 3.29932C26.0192 3.29932 25.9431 3.34433 25.9073 3.42085L24.8294 5.6354L22.4006 5.99999C22.32 6.0135 22.2529 6.06751 22.2261 6.14853C22.1993 6.22505 22.2216 6.31507 22.2798 6.36908L24.0421 8.08851L23.6351 10.5236C23.6217 10.6046 23.653 10.6857 23.7201 10.7352C23.7559 10.7622 23.8006 10.7757 23.8453 10.7757C23.8811 10.7757 23.9124 10.7667 23.9437 10.7487L26.1131 9.59189L28.2869 10.7352C28.3183 10.7532 28.354 10.7577 28.3853 10.7577C28.5016 10.7577 28.6001 10.6587 28.6001 10.5416C28.6001 10.5236 28.6 10.5101 28.5956 10.4921L28.1751 8.07501L29.924 6.34658C29.9911 6.28806 30.0135 6.20254 29.9867 6.12602ZM27.7994 7.84545C27.7502 7.89497 27.7278 7.96698 27.7368 8.039L28.1036 10.15L26.216 9.15978C26.1534 9.12827 26.0773 9.12827 26.0147 9.15978L24.1316 10.1635L24.4849 8.048C24.4939 7.97599 24.4715 7.90847 24.4223 7.85896L22.8971 6.36908L25.0038 6.05401C25.0754 6.045 25.1335 5.99999 25.1648 5.93698L26.0997 4.00599L27.0479 5.92347C27.0793 5.98649 27.1419 6.0315 27.209 6.0405L29.3157 6.34208L27.7994 7.84545Z" fill="#EC3A34"/>
</g>
<defs>
<clipPath id="clip0">
<rect width="30" height="30" fill="white"/>
</clipPath>
</defs>
</svg>
