<svg width="30" height="29" viewBox="0 0 30 29" fill="none" xmlns="http://www.w3.org/2000/svg">
<path d="M29.949 14.7403L29.9235 14.7527L25.6196 4.39773H27.5834C27.9355 4.39773 28.221 4.12175 28.221 3.78136C28.221 3.44097 27.9355 3.165 27.5834 3.165H15.5834V1.3837C15.5834 1.04331 15.2979 0.767334 14.9458 0.767334C14.5937 0.767334 14.3082 1.04331 14.3082 1.3837V3.15883H2.31456C1.96243 3.15883 1.67694 3.43481 1.67694 3.7752C1.67694 4.11559 1.96243 4.39156 2.31456 4.39156H4.36132L0.0510096 14.7403C0.0191286 14.8125 0.00183316 14.89 0 14.9684C0 17.7989 2.3737 20.0935 5.30181 20.0935C8.22991 20.0935 10.6036 17.7989 10.6036 14.9684C10.6018 14.89 10.5845 14.8125 10.5526 14.7403L6.24867 4.3854H14.3082V23.4434C11.2667 23.6653 8.88842 25.4528 8.88842 27.6162C8.88842 27.9566 9.17391 28.2326 9.52604 28.2326H20.3656C20.7177 28.2326 21.0032 27.9566 21.0032 27.6162C21.0032 25.4528 18.6249 23.6653 15.5834 23.4434V4.3854H23.7258L19.4474 14.7403C19.4155 14.8125 19.3982 14.89 19.3964 14.9684C19.3964 17.7989 21.7701 20.0935 24.6982 20.0935C27.6263 20.0935 30 17.7989 30 14.9684C29.9982 14.89 29.9809 14.8125 29.949 14.7403ZM5.29862 18.87C3.32375 18.8674 1.64187 17.4816 1.32625 15.5971H9.24548C8.93146 17.4725 7.26384 18.8554 5.29862 18.87ZM9.01594 14.3644H1.59405L5.31137 5.42089L9.01594 14.3644ZM19.6132 26.9999H10.2721C10.7439 25.6747 12.6886 24.6515 14.9394 24.6515C17.1902 24.6515 19.1413 25.6747 19.6132 26.9999ZM24.6695 5.42706L28.3741 14.3644H20.9522L24.6695 5.42706ZM24.6695 18.87V18.8762C22.7022 18.861 21.0339 17.4749 20.7226 15.5971H28.6419C28.3262 17.4816 26.6444 18.8674 24.6695 18.87Z" fill="#EC3A34"/>
</svg>
