<svg width="21" height="21" viewBox="0 0 21 21" fill="none" xmlns="http://www.w3.org/2000/svg">
<g clip-path="url(#clip0)">
<path d="M19.257 2.09988C19.4503 2.09988 19.607 1.9432 19.607 1.74989C19.607 1.55658 19.4503 1.3999 19.257 1.3999H19.2536C19.0603 1.40085 18.9043 1.5583 18.9053 1.75161C18.9062 1.94492 19.0637 2.10082 19.257 2.09988Z" fill="white"/>
<path d="M17.8566 2.09988C18.0499 2.09988 18.2066 1.9432 18.2066 1.74989C18.2066 1.55658 18.0499 1.3999 17.8566 1.3999H17.8532C17.6599 1.40085 17.5039 1.5583 17.5049 1.75161C17.5058 1.94488 17.6633 2.10082 17.8566 2.09988Z" fill="white"/>
<path d="M19.257 3.84992C19.4503 3.84992 19.607 3.6932 19.607 3.49993C19.607 3.30666 19.4503 3.1499 19.257 3.1499H19.2536C19.0603 3.15085 18.9043 3.3083 18.9053 3.50161C18.9062 3.69492 19.0637 3.85086 19.257 3.84992Z" fill="white"/>
<path d="M17.8566 3.84987C18.0499 3.84987 18.2066 3.69315 18.2066 3.49989C18.2066 3.30662 18.0499 3.1499 17.8566 3.1499H17.8532C17.6599 3.15085 17.5039 3.3083 17.5049 3.50161C17.5058 3.69488 17.6633 3.85082 17.8566 3.84987Z" fill="white"/>
<path d="M19.257 5.60012C19.4503 5.60012 19.607 5.44344 19.607 5.25013C19.607 5.05683 19.4503 4.90015 19.257 4.90015H19.2536C19.0603 4.90109 18.9043 5.05855 18.9053 5.25186C18.9062 5.44516 19.0637 5.60106 19.257 5.60012Z" fill="white"/>
<path d="M17.8566 5.60012C18.0499 5.60012 18.2066 5.44344 18.2066 5.25013C18.2066 5.05683 18.0499 4.90015 17.8566 4.90015H17.8532C17.6599 4.90109 17.5039 5.05855 17.5049 5.25186C17.5058 5.44516 17.6633 5.60106 17.8566 5.60012Z" fill="white"/>
<path d="M19.257 7.34987C19.4503 7.34987 19.607 7.19319 19.607 6.99989C19.607 6.80658 19.4503 6.6499 19.257 6.6499H19.2536C19.0603 6.65085 18.9043 6.8083 18.9053 7.00161C18.9062 7.19492 19.0637 7.35082 19.257 7.34987Z" fill="white"/>
<path d="M17.8566 7.34987C18.0499 7.34987 18.2066 7.19319 18.2066 6.99989C18.2066 6.80658 18.0499 6.6499 17.8566 6.6499H17.8532C17.6599 6.65085 17.5039 6.8083 17.5049 7.00161C17.5058 7.19488 17.6633 7.35082 17.8566 7.34987Z" fill="white"/>
<path d="M19.257 9.09987C19.4503 9.09987 19.607 8.94315 19.607 8.74989C19.607 8.55658 19.4503 8.3999 19.257 8.3999H19.2536C19.0603 8.40085 18.9043 8.5583 18.9053 8.75161C18.9062 8.94488 19.0637 9.10082 19.257 9.09987Z" fill="white"/>
<path d="M17.8566 9.09987C18.0499 9.09987 18.2066 8.94315 18.2066 8.74989C18.2066 8.55658 18.0499 8.3999 17.8566 8.3999H17.8532C17.6599 8.40085 17.5039 8.5583 17.5049 8.75161C17.5058 8.94488 17.6633 9.10082 17.8566 9.09987Z" fill="white"/>
<path d="M19.257 10.8501C19.4503 10.8501 19.607 10.6934 19.607 10.5001C19.607 10.3068 19.4503 10.1501 19.257 10.1501H19.2536C19.0603 10.1511 18.9043 10.3086 18.9053 10.5019C18.9062 10.6952 19.0637 10.8511 19.257 10.8501Z" fill="white"/>
<path d="M17.8566 10.8501C18.0499 10.8501 18.2066 10.6934 18.2066 10.5001C18.2066 10.3068 18.0499 10.1501 17.8566 10.1501H17.8532C17.6599 10.1511 17.5039 10.3086 17.5049 10.5019C17.5058 10.6952 17.6633 10.8511 17.8566 10.8501Z" fill="white"/>
<path d="M19.257 12.5999C19.4503 12.5999 19.607 12.4432 19.607 12.2499C19.607 12.0566 19.4503 11.8999 19.257 11.8999H19.2536C19.0603 11.9008 18.9043 12.0583 18.9053 12.2516C18.9062 12.4449 19.0637 12.6008 19.257 12.5999Z" fill="white"/>
<path d="M17.8566 12.5999C18.0499 12.5999 18.2066 12.4432 18.2066 12.2499C18.2066 12.0566 18.0499 11.8999 17.8566 11.8999H17.8532C17.6599 11.9008 17.5039 12.0583 17.5049 12.2516C17.5058 12.4449 17.6633 12.6008 17.8566 12.5999Z" fill="white"/>
<path d="M19.257 14.3499C19.4503 14.3499 19.607 14.1932 19.607 13.9999C19.607 13.8066 19.4503 13.6499 19.257 13.6499H19.2536C19.0603 13.6508 18.9043 13.8083 18.9053 14.0016C18.9062 14.1949 19.0637 14.3508 19.257 14.3499Z" fill="white"/>
<path d="M17.8566 14.3499C18.0499 14.3499 18.2066 14.1932 18.2066 13.9999C18.2066 13.8066 18.0499 13.6499 17.8566 13.6499H17.8532C17.6599 13.6508 17.5039 13.8083 17.5049 14.0016C17.5058 14.1949 17.6633 14.3508 17.8566 14.3499Z" fill="white"/>
<path d="M19.257 16.1001C19.4503 16.1001 19.607 15.9434 19.607 15.7501C19.607 15.5568 19.4503 15.4001 19.257 15.4001H19.2536C19.0603 15.4011 18.9043 15.5585 18.9053 15.7519C18.9062 15.9452 19.0637 16.1011 19.257 16.1001Z" fill="white"/>
<path d="M19.257 17.8499C19.4503 17.8499 19.607 17.6932 19.607 17.4999C19.607 17.3066 19.4503 17.1499 19.257 17.1499H19.2536C19.0603 17.1508 18.9043 17.3083 18.9053 17.5016C18.9062 17.6949 19.0637 17.8508 19.257 17.8499Z" fill="white"/>
<path d="M17.8551 16.1036C18.049 16.1036 18.2063 15.9466 18.2068 15.7527C18.2072 15.5588 18.0507 15.4011 17.8568 15.4001H17.8534C17.6595 15.4011 17.5029 15.5588 17.5034 15.7527C17.5038 15.9466 17.6612 16.1036 17.8551 16.1036Z" fill="white"/>
<path d="M1.7572 18.9001H1.7538C1.55987 18.9011 1.40332 19.0588 1.40381 19.2527C1.4043 19.4466 1.5616 19.6036 1.75552 19.6036C1.94944 19.6036 2.10678 19.4466 2.10723 19.2527C2.10768 19.0588 1.95112 18.9011 1.7572 18.9001Z" fill="white"/>
<path d="M1.7572 17.5H1.7538C1.55987 17.5009 1.40332 17.6586 1.40381 17.8526C1.40426 18.0465 1.5616 18.2034 1.75552 18.2034C1.94944 18.2034 2.10678 18.0465 2.10723 17.8526C2.10768 17.6586 1.95112 17.5009 1.7572 17.5Z" fill="white"/>
<path d="M3.50671 18.9001H3.50331C3.30939 18.9011 3.15283 19.0588 3.15332 19.2527C3.15377 19.4466 3.31111 19.6036 3.50503 19.6036C3.69895 19.6036 3.85629 19.4466 3.85674 19.2527C3.85719 19.0588 3.70063 18.9011 3.50671 18.9001Z" fill="white"/>
<path d="M3.50671 17.5H3.50331C3.30939 17.5009 3.15283 17.6586 3.15332 17.8526C3.15377 18.0465 3.31111 18.2034 3.50503 18.2034C3.69895 18.2034 3.85629 18.0465 3.85674 17.8526C3.85719 17.6586 3.70063 17.5009 3.50671 17.5Z" fill="white"/>
<path d="M5.25671 18.9001H5.25331C5.05939 18.9011 4.90283 19.0588 4.90332 19.2527C4.90381 19.4466 5.06111 19.6036 5.25503 19.6036C5.44895 19.6036 5.60629 19.4466 5.60674 19.2527C5.60719 19.0588 5.45059 18.9011 5.25671 18.9001Z" fill="white"/>
<path d="M5.25671 17.5H5.25331C5.05939 17.5009 4.90283 17.6586 4.90332 17.8526C4.90381 18.0465 5.06111 18.2034 5.25503 18.2034C5.44895 18.2034 5.60629 18.0465 5.60674 17.8526C5.60715 17.6586 5.45059 17.5009 5.25671 17.5Z" fill="white"/>
<path d="M7.0072 18.9001H7.0038C6.80987 18.9011 6.65332 19.0588 6.65381 19.2527C6.6543 19.4466 6.8116 19.6036 7.00552 19.6036C7.19944 19.6036 7.35678 19.4466 7.35723 19.2527C7.35768 19.0588 7.20112 18.9011 7.0072 18.9001Z" fill="white"/>
<path d="M7.0072 17.5H7.0038C6.80987 17.5009 6.65332 17.6586 6.65381 17.8526C6.65426 18.0465 6.8116 18.2034 7.00552 18.2034C7.19944 18.2034 7.35678 18.0465 7.35723 17.8526C7.35768 17.6586 7.20112 17.5009 7.0072 17.5Z" fill="white"/>
<path d="M8.75671 18.9001H8.75331C8.55939 18.9011 8.40283 19.0588 8.40332 19.2527C8.40377 19.4466 8.56111 19.6036 8.75503 19.6036C8.94895 19.6036 9.10629 19.4466 9.10674 19.2527C9.10719 19.0588 8.95063 18.9011 8.75671 18.9001Z" fill="white"/>
<path d="M8.75671 17.5H8.75331C8.55939 17.5009 8.40283 17.6586 8.40332 17.8526C8.40377 18.0465 8.56111 18.2034 8.75503 18.2034C8.94895 18.2034 9.10629 18.0465 9.10674 17.8526C9.10719 17.6586 8.95063 17.5009 8.75671 17.5Z" fill="white"/>
<path d="M10.5067 18.9001H10.5033C10.3094 18.9011 10.1528 19.0588 10.1533 19.2527C10.1538 19.4466 10.3111 19.6036 10.505 19.6036C10.6989 19.6036 10.8563 19.4466 10.8567 19.2527C10.8572 19.0588 10.7006 18.9011 10.5067 18.9001Z" fill="white"/>
<path d="M10.5067 17.5H10.5033C10.3094 17.5009 10.1528 17.6586 10.1533 17.8526C10.1538 18.0465 10.3111 18.2034 10.505 18.2034C10.6989 18.2034 10.8563 18.0465 10.8567 17.8526C10.8571 17.6586 10.7006 17.5009 10.5067 17.5Z" fill="white"/>
<path d="M12.2572 18.9001H12.2538C12.0599 18.9011 11.9033 19.0588 11.9038 19.2527C11.9043 19.4466 12.0616 19.6036 12.2555 19.6036C12.4494 19.6036 12.6068 19.4466 12.6072 19.2527C12.6077 19.0588 12.4511 18.9011 12.2572 18.9001Z" fill="white"/>
<path d="M12.2572 17.5H12.2538C12.0599 17.5009 11.9033 17.6586 11.9038 17.8526C11.9043 18.0465 12.0616 18.2034 12.2555 18.2034C12.4494 18.2034 12.6068 18.0465 12.6072 17.8526C12.6077 17.6586 12.4511 17.5009 12.2572 17.5Z" fill="white"/>
<path d="M14.0067 18.9001H14.0033C13.8094 18.9011 13.6528 19.0588 13.6533 19.2527C13.6538 19.4466 13.8111 19.6036 14.005 19.6036C14.199 19.6036 14.3563 19.4466 14.3567 19.2527C14.3572 19.0588 14.2006 18.9011 14.0067 18.9001Z" fill="white"/>
<path d="M14.0067 17.5H14.0033C13.8094 17.5009 13.6528 17.6586 13.6533 17.8526C13.6538 18.0465 13.8111 18.2034 14.005 18.2034C14.199 18.2034 14.3563 18.0465 14.3567 17.8526C14.3572 17.6586 14.2006 17.5009 14.0067 17.5Z" fill="white"/>
<path d="M15.7567 18.9001H15.7533C15.5594 18.9011 15.4028 19.0588 15.4033 19.2527C15.4038 19.4466 15.5611 19.6036 15.755 19.6036C15.949 19.6036 16.1063 19.4466 16.1067 19.2527C16.1072 19.0588 15.9506 18.9011 15.7567 18.9001Z" fill="white"/>
<path d="M17.5055 19.6036C17.6994 19.6036 17.8567 19.4466 17.8572 19.2527C17.8576 19.0588 17.7011 18.9011 17.5072 18.9001H17.5038C17.3099 18.9011 17.1533 19.0588 17.1538 19.2527C17.1543 19.4466 17.3116 19.6036 17.5055 19.6036Z" fill="white"/>
<path d="M15.7567 17.5H15.7533C15.5594 17.5009 15.4028 17.6586 15.4033 17.8526C15.4038 18.0465 15.5611 18.2034 15.755 18.2034C15.949 18.2034 16.1063 18.0465 16.1067 17.8526C16.1071 17.6586 15.9506 17.5009 15.7567 17.5Z" fill="white"/>
<path d="M21 0.700014C20.9995 0.313564 20.6864 0.000451172 20.3 0H5.59999C5.50705 0.000246094 5.418 0.0372012 5.35221 0.102826L0.102785 5.35229C0.0372012 5.41808 0.000287109 5.50709 0 5.59999V20.3C0.000451172 20.6864 0.313564 20.9995 0.700014 21H20.3C20.3698 20.999 20.439 20.9874 20.5053 20.9657C20.6373 21.028 20.7942 21.0007 20.8975 20.8975C21.0007 20.7943 21.028 20.6373 20.9658 20.5053C20.9875 20.439 20.9991 20.3698 21 20.3V0.700014H21ZM5.25 1.19491V5.25H1.19491L5.25 1.19491ZM0.700014 5.95001H5.60003C5.69285 5.95005 5.78189 5.91318 5.84756 5.84752C5.91318 5.78189 5.95005 5.69285 5.95005 5.59999V0.700014H16.1001V16.1H0.700014V5.95001ZM0.700014 20.3V16.8H16.1C16.1606 16.7992 16.2209 16.7905 16.2792 16.7741L19.8051 20.3H0.700014V20.3ZM20.3 19.8051L16.7752 16.2803C16.7909 16.2241 16.7992 16.1659 16.8 16.1075V0.700014H20.3V19.8051Z" fill="white"/>
</g>
<defs>
<clipPath id="clip0">
<rect width="21" height="21" fill="white"/>
</clipPath>
</defs>
</svg>
