<svg width="21" height="21" viewBox="0 0 21 21" fill="none" xmlns="http://www.w3.org/2000/svg">
<g clip-path="url(#clip0)">
<path d="M20.9802 15.9075L20.9807 15.9074L17.7771 5.15257C17.7244 4.97579 17.5795 4.84261 17.3989 4.80508C17.2183 4.76751 17.0323 4.83199 16.9137 4.97317L14.2271 8.16804L14.7085 8.57287L17.2421 5.5599L19.9751 14.7351L10.681 4.61477C10.5862 4.51158 10.452 4.45264 10.3119 4.45264C10.3104 4.45264 10.3088 4.45264 10.3072 4.45264C10.1655 4.45399 10.0304 4.51564 9.93656 4.62179L0.126669 15.7145C-0.00568843 15.8641 -0.0368604 16.0702 0.045171 16.2523C0.127243 16.4344 0.302298 16.5476 0.502086 16.5476H20.4991C20.6978 16.5476 20.8779 16.43 20.9579 16.2481C21.006 16.1385 21.0121 16.0181 20.9802 15.9075ZM19.9498 15.9185V15.9186L19.8268 15.7885L19.6892 15.9186H19.3931L19.6871 15.6407L19.2679 15.1973L18.8108 15.6294L19.0842 15.9186H2.03845L2.34156 15.5782L1.87185 15.1599L1.45164 15.6317L1.77365 15.9185H1.45697L1.31153 15.789L1.19615 15.9185H0.785874L10.3137 5.14478L20.208 15.9185H19.9498Z" fill="white"/>
<path d="M14.4676 14.6606H9.43555V15.2897H14.4676V14.6606Z" fill="white"/>
<path d="M16.0407 14.6606H15.0186V15.2897H16.0407V14.6606Z" fill="white"/>
<path d="M17.2985 14.6606H16.6694V15.2897H17.2985V14.6606Z" fill="white"/>
<path d="M6.91493 9.49762L6.49463 9.96948L6.96429 10.3878L7.38458 9.91595L6.91493 9.49762Z" fill="white"/>
<path d="M7.47498 8.86871L7.05469 9.34058L7.52434 9.75891L7.94464 9.28705L7.47498 8.86871Z" fill="white"/>
<path d="M8.59657 7.6109L8.17627 8.08276L8.64593 8.5011L9.06622 8.02923L8.59657 7.6109Z" fill="white"/>
<path d="M8.03553 8.24005L7.61523 8.71191L8.08489 9.13025L8.50519 8.65838L8.03553 8.24005Z" fill="white"/>
<path d="M6.35438 10.1268L5.93408 10.5986L6.40374 11.017L6.82403 10.5451L6.35438 10.1268Z" fill="white"/>
<path d="M9.71571 6.35162L9.29541 6.82349L9.76507 7.24182L10.1854 6.76996L9.71571 6.35162Z" fill="white"/>
<path d="M2.99256 13.9022L2.57227 14.374L3.04192 14.7924L3.46222 14.3205L2.99256 13.9022Z" fill="white"/>
<path d="M2.43153 14.5313L2.01123 15.0032L2.48089 15.4215L2.90118 14.9496L2.43153 14.5313Z" fill="white"/>
<path d="M3.55262 13.273L3.13232 13.7449L3.60198 14.1632L4.02228 13.6913L3.55262 13.273Z" fill="white"/>
<path d="M4.11317 12.6439L3.69287 13.1157L4.16253 13.5341L4.58282 13.0622L4.11317 12.6439Z" fill="white"/>
<path d="M5.23377 11.3851L4.81348 11.8569L5.28313 12.2753L5.70343 11.8034L5.23377 11.3851Z" fill="white"/>
<path d="M5.79383 10.7564L5.37354 11.2283L5.84319 11.6466L6.26349 11.1747L5.79383 10.7564Z" fill="white"/>
<path d="M4.67323 12.0145L4.25293 12.4863L4.72259 12.9047L5.14288 12.4328L4.67323 12.0145Z" fill="white"/>
<path d="M9.15665 6.98068L8.73633 7.45264L9.20608 7.871L9.6264 7.39904L9.15665 6.98068Z" fill="white"/>
<path d="M10.2936 5.70386L9.85645 6.19469L10.0813 6.39497L10.288 6.61363L10.3068 6.59579L10.3262 6.61301L10.5263 6.38825L10.7451 6.18148L10.2936 5.70386Z" fill="white"/>
<path d="M13.1201 8.69421L12.6631 9.12622L13.0822 9.56962L13.5392 9.1376L13.1201 8.69421Z" fill="white"/>
<path d="M12.5616 8.10278L12.1045 8.53491L12.5237 8.97831L12.9808 8.54617L12.5616 8.10278Z" fill="white"/>
<path d="M13.6788 9.28564L13.2217 9.71777L13.6409 10.1612L14.098 9.72903L13.6788 9.28564Z" fill="white"/>
<path d="M12.003 7.51147L11.5459 7.9436L11.9651 8.387L12.4222 7.95486L12.003 7.51147Z" fill="white"/>
<path d="M14.2379 9.87671L13.7808 10.3088L14.1999 10.7522L14.657 10.3201L14.2379 9.87671Z" fill="white"/>
<path d="M10.8853 6.32958L10.4282 6.76172L10.8474 7.20511L11.3045 6.77298L10.8853 6.32958Z" fill="white"/>
<path d="M11.4439 6.92052L10.9868 7.35254L11.4059 7.7959L11.8629 7.36389L11.4439 6.92052Z" fill="white"/>
<path d="M18.15 14.0151L17.6929 14.4473L18.112 14.8907L18.5692 14.4585L18.15 14.0151Z" fill="white"/>
<path d="M17.5914 13.4233L17.1343 13.8555L17.5534 14.2989L18.0106 13.8667L17.5914 13.4233Z" fill="white"/>
<path d="M18.7095 14.6064L18.2524 15.0386L18.6716 15.482L19.1287 15.0498L18.7095 14.6064Z" fill="white"/>
<path d="M17.0327 12.8321L16.5757 13.2642L16.9948 13.7076L17.4518 13.2755L17.0327 12.8321Z" fill="white"/>
<path d="M14.797 10.4675L14.3398 10.8997L14.759 11.343L15.2161 10.9109L14.797 10.4675Z" fill="white"/>
<path d="M16.4737 12.2415L16.0166 12.6736L16.4358 13.117L16.8929 12.6848L16.4737 12.2415Z" fill="white"/>
<path d="M15.356 11.0587L14.8989 11.4907L15.318 11.9341L15.7751 11.5021L15.356 11.0587Z" fill="white"/>
<path d="M15.9141 11.6501L15.457 12.0823L15.8762 12.5257L16.3333 12.0935L15.9141 11.6501Z" fill="white"/>
</g>
<defs>
<clipPath id="clip0">
<rect width="21" height="21" fill="white"/>
</clipPath>
</defs>
</svg>
